<?xml version="1.0" encoding="UTF-8"?>
<testsuite xmlns:xsi="http://www.w3.org/2001/XMLSchema-instance" xsi:noNamespaceSchemaLocation="https://maven.apache.org/surefire/maven-surefire-plugin/xsd/surefire-test-report-3.0.xsd" version="3.0" name="com.example.AppTest" time="0.017" tests="1" errors="0" skipped="0" failures="0">
  <properties>
    <property name="java.specification.version" value="21"/>
    <property name="sun.jnu.encoding" value="UTF-8"/>
    <property name="java.class.path" value="/Users/rahulkallur/Pictures/kube/IOT_HUB/Condense/store-connectors/aws-kinesis-source-kafka-connector/target/test-classes:/Users/rahulkallur/Pictures/kube/IOT_HUB/Condense/store-connectors/aws-kinesis-source-kafka-connector/target/classes:/Users/rahulkallur/.m2/repository/junit/junit/3.8.1/junit-3.8.1.jar:/Users/rahulkallur/.m2/repository/software/amazon/awssdk/kinesis/2.15.82/kinesis-2.15.82.jar:/Users/rahulkallur/.m2/repository/software/amazon/awssdk/aws-cbor-protocol/2.15.82/aws-cbor-protocol-2.15.82.jar:/Users/rahulkallur/.m2/repository/com/fasterxml/jackson/dataformat/jackson-dataformat-cbor/2.10.5/jackson-dataformat-cbor-2.10.5.jar:/Users/rahulkallur/.m2/repository/com/fasterxml/jackson/core/jackson-core/2.10.5/jackson-core-2.10.5.jar:/Users/rahulkallur/.m2/repository/software/amazon/awssdk/aws-json-protocol/2.15.82/aws-json-protocol-2.15.82.jar:/Users/rahulkallur/.m2/repository/software/amazon/awssdk/protocol-core/2.15.82/protocol-core-2.15.82.jar:/Users/rahulkallur/.m2/repository/software/amazon/awssdk/profiles/2.15.82/profiles-2.15.82.jar:/Users/rahulkallur/.m2/repository/software/amazon/awssdk/sdk-core/2.15.82/sdk-core-2.15.82.jar:/Users/rahulkallur/.m2/repository/com/fasterxml/jackson/core/jackson-databind/2.10.5.1/jackson-databind-2.10.5.1.jar:/Users/rahulkallur/.m2/repository/org/reactivestreams/reactive-streams/1.0.2/reactive-streams-1.0.2.jar:/Users/rahulkallur/.m2/repository/software/amazon/awssdk/auth/2.15.82/auth-2.15.82.jar:/Users/rahulkallur/.m2/repository/software/amazon/eventstream/eventstream/1.0.1/eventstream-1.0.1.jar:/Users/rahulkallur/.m2/repository/software/amazon/awssdk/http-client-spi/2.15.82/http-client-spi-2.15.82.jar:/Users/rahulkallur/.m2/repository/software/amazon/awssdk/regions/2.15.82/regions-2.15.82.jar:/Users/rahulkallur/.m2/repository/com/fasterxml/jackson/core/jackson-annotations/2.10.5/jackson-annotations-2.10.5.jar:/Users/rahulkallur/.m2/repository/software/amazon/awssdk/annotations/2.15.82/annotations-2.15.82.jar:/Users/rahulkallur/.m2/repository/software/amazon/awssdk/utils/2.15.82/utils-2.15.82.jar:/Users/rahulkallur/.m2/repository/software/amazon/awssdk/aws-core/2.15.82/aws-core-2.15.82.jar:/Users/rahulkallur/.m2/repository/software/amazon/awssdk/metrics-spi/2.15.82/metrics-spi-2.15.82.jar:/Users/rahulkallur/.m2/repository/software/amazon/awssdk/apache-client/2.15.82/apache-client-2.15.82.jar:/Users/rahulkallur/.m2/repository/org/apache/httpcomponents/httpclient/4.5.13/httpclient-4.5.13.jar:/Users/rahulkallur/.m2/repository/commons-logging/commons-logging/1.2/commons-logging-1.2.jar:/Users/rahulkallur/.m2/repository/commons-codec/commons-codec/1.11/commons-codec-1.11.jar:/Users/rahulkallur/.m2/repository/org/apache/httpcomponents/httpcore/4.4.11/httpcore-4.4.11.jar:/Users/rahulkallur/.m2/repository/software/amazon/awssdk/netty-nio-client/2.15.82/netty-nio-client-2.15.82.jar:/Users/rahulkallur/.m2/repository/io/netty/netty-codec-http/4.1.59.Final/netty-codec-http-4.1.59.Final.jar:/Users/rahulkallur/.m2/repository/io/netty/netty-codec-http2/4.1.59.Final/netty-codec-http2-4.1.59.Final.jar:/Users/rahulkallur/.m2/repository/io/netty/netty-codec/4.1.59.Final/netty-codec-4.1.59.Final.jar:/Users/rahulkallur/.m2/repository/io/netty/netty-transport/4.1.59.Final/netty-transport-4.1.59.Final.jar:/Users/rahulkallur/.m2/repository/io/netty/netty-resolver/4.1.59.Final/netty-resolver-4.1.59.Final.jar:/Users/rahulkallur/.m2/repository/io/netty/netty-common/4.1.59.Final/netty-common-4.1.59.Final.jar:/Users/rahulkallur/.m2/repository/io/netty/netty-buffer/4.1.59.Final/netty-buffer-4.1.59.Final.jar:/Users/rahulkallur/.m2/repository/io/netty/netty-handler/4.1.59.Final/netty-handler-4.1.59.Final.jar:/Users/rahulkallur/.m2/repository/io/netty/netty-transport-native-epoll/4.1.59.Final/netty-transport-native-epoll-4.1.59.Final-linux-x86_64.jar:/Users/rahulkallur/.m2/repository/io/netty/netty-transport-native-unix-common/4.1.59.Final/netty-transport-native-unix-common-4.1.59.Final.jar:/Users/rahulkallur/.m2/repository/com/typesafe/netty/netty-reactive-streams-http/2.0.4/netty-reactive-streams-http-2.0.4.jar:/Users/rahulkallur/.m2/repository/com/typesafe/netty/netty-reactive-streams/2.0.4/netty-reactive-streams-2.0.4.jar:/Users/rahulkallur/.m2/repository/io/github/cdimascio/dotenv-java/3.0.0/dotenv-java-3.0.0.jar:/Users/rahulkallur/.m2/repository/org/apache/kafka/kafka-clients/3.4.0/kafka-clients-3.4.0.jar:/Users/rahulkallur/.m2/repository/com/github/luben/zstd-jni/1.5.2-1/zstd-jni-1.5.2-1.jar:/Users/rahulkallur/.m2/repository/org/lz4/lz4-java/1.8.0/lz4-java-1.8.0.jar:/Users/rahulkallur/.m2/repository/org/xerial/snappy/snappy-java/1.1.8.4/snappy-java-1.1.8.4.jar:/Users/rahulkallur/.m2/repository/org/slf4j/slf4j-api/2.0.9/slf4j-api-2.0.9.jar:/Users/rahulkallur/.m2/repository/ch/qos/logback/logback-classic/1.4.14/logback-classic-1.4.14.jar:/Users/rahulkallur/.m2/repository/ch/qos/logback/logback-core/1.4.14/logback-core-1.4.14.jar:"/>
    <property name="java.vm.vendor" value="Homebrew"/>
    <property name="sun.arch.data.model" value="64"/>
    <property name="java.vendor.url" value="https://github.com/Homebrew/homebrew-core/issues"/>
    <property name="os.name" value="Mac OS X"/>
    <property name="java.vm.specification.version" value="21"/>
    <property name="sun.java.launcher" value="SUN_STANDARD"/>
    <property name="user.country" value="IN"/>
    <property name="sun.boot.library.path" value="/opt/homebrew/Cellar/openjdk/21/libexec/openjdk.jdk/Contents/Home/lib"/>
    <property name="sun.java.command" value="/Users/rahulkallur/Pictures/kube/IOT_HUB/Condense/store-connectors/aws-kinesis-source-kafka-connector/target/surefire/surefirebooter-20231208110821143_3.jar /Users/rahulkallur/Pictures/kube/IOT_HUB/Condense/store-connectors/aws-kinesis-source-kafka-connector/target/surefire 2023-12-08T11-08-21_104-jvmRun1 surefire-20231208110821143_1tmp surefire_0-20231208110821143_2tmp"/>
    <property name="http.nonProxyHosts" value="local|*.local|169.254/16|*.169.254/16"/>
    <property name="jdk.debug" value="release"/>
    <property name="surefire.test.class.path" value="/Users/rahulkallur/Pictures/kube/IOT_HUB/Condense/store-connectors/aws-kinesis-source-kafka-connector/target/test-classes:/Users/rahulkallur/Pictures/kube/IOT_HUB/Condense/store-connectors/aws-kinesis-source-kafka-connector/target/classes:/Users/rahulkallur/.m2/repository/junit/junit/3.8.1/junit-3.8.1.jar:/Users/rahulkallur/.m2/repository/software/amazon/awssdk/kinesis/2.15.82/kinesis-2.15.82.jar:/Users/rahulkallur/.m2/repository/software/amazon/awssdk/aws-cbor-protocol/2.15.82/aws-cbor-protocol-2.15.82.jar:/Users/rahulkallur/.m2/repository/com/fasterxml/jackson/dataformat/jackson-dataformat-cbor/2.10.5/jackson-dataformat-cbor-2.10.5.jar:/Users/rahulkallur/.m2/repository/com/fasterxml/jackson/core/jackson-core/2.10.5/jackson-core-2.10.5.jar:/Users/rahulkallur/.m2/repository/software/amazon/awssdk/aws-json-protocol/2.15.82/aws-json-protocol-2.15.82.jar:/Users/rahulkallur/.m2/repository/software/amazon/awssdk/protocol-core/2.15.82/protocol-core-2.15.82.jar:/Users/rahulkallur/.m2/repository/software/amazon/awssdk/profiles/2.15.82/profiles-2.15.82.jar:/Users/rahulkallur/.m2/repository/software/amazon/awssdk/sdk-core/2.15.82/sdk-core-2.15.82.jar:/Users/rahulkallur/.m2/repository/com/fasterxml/jackson/core/jackson-databind/2.10.5.1/jackson-databind-2.10.5.1.jar:/Users/rahulkallur/.m2/repository/org/reactivestreams/reactive-streams/1.0.2/reactive-streams-1.0.2.jar:/Users/rahulkallur/.m2/repository/software/amazon/awssdk/auth/2.15.82/auth-2.15.82.jar:/Users/rahulkallur/.m2/repository/software/amazon/eventstream/eventstream/1.0.1/eventstream-1.0.1.jar:/Users/rahulkallur/.m2/repository/software/amazon/awssdk/http-client-spi/2.15.82/http-client-spi-2.15.82.jar:/Users/rahulkallur/.m2/repository/software/amazon/awssdk/regions/2.15.82/regions-2.15.82.jar:/Users/rahulkallur/.m2/repository/com/fasterxml/jackson/core/jackson-annotations/2.10.5/jackson-annotations-2.10.5.jar:/Users/rahulkallur/.m2/repository/software/amazon/awssdk/annotations/2.15.82/annotations-2.15.82.jar:/Users/rahulkallur/.m2/repository/software/amazon/awssdk/utils/2.15.82/utils-2.15.82.jar:/Users/rahulkallur/.m2/repository/software/amazon/awssdk/aws-core/2.15.82/aws-core-2.15.82.jar:/Users/rahulkallur/.m2/repository/software/amazon/awssdk/metrics-spi/2.15.82/metrics-spi-2.15.82.jar:/Users/rahulkallur/.m2/repository/software/amazon/awssdk/apache-client/2.15.82/apache-client-2.15.82.jar:/Users/rahulkallur/.m2/repository/org/apache/httpcomponents/httpclient/4.5.13/httpclient-4.5.13.jar:/Users/rahulkallur/.m2/repository/commons-logging/commons-logging/1.2/commons-logging-1.2.jar:/Users/rahulkallur/.m2/repository/commons-codec/commons-codec/1.11/commons-codec-1.11.jar:/Users/rahulkallur/.m2/repository/org/apache/httpcomponents/httpcore/4.4.11/httpcore-4.4.11.jar:/Users/rahulkallur/.m2/repository/software/amazon/awssdk/netty-nio-client/2.15.82/netty-nio-client-2.15.82.jar:/Users/rahulkallur/.m2/repository/io/netty/netty-codec-http/4.1.59.Final/netty-codec-http-4.1.59.Final.jar:/Users/rahulkallur/.m2/repository/io/netty/netty-codec-http2/4.1.59.Final/netty-codec-http2-4.1.59.Final.jar:/Users/rahulkallur/.m2/repository/io/netty/netty-codec/4.1.59.Final/netty-codec-4.1.59.Final.jar:/Users/rahulkallur/.m2/repository/io/netty/netty-transport/4.1.59.Final/netty-transport-4.1.59.Final.jar:/Users/rahulkallur/.m2/repository/io/netty/netty-resolver/4.1.59.Final/netty-resolver-4.1.59.Final.jar:/Users/rahulkallur/.m2/repository/io/netty/netty-common/4.1.59.Final/netty-common-4.1.59.Final.jar:/Users/rahulkallur/.m2/repository/io/netty/netty-buffer/4.1.59.Final/netty-buffer-4.1.59.Final.jar:/Users/rahulkallur/.m2/repository/io/netty/netty-handler/4.1.59.Final/netty-handler-4.1.59.Final.jar:/Users/rahulkallur/.m2/repository/io/netty/netty-transport-native-epoll/4.1.59.Final/netty-transport-native-epoll-4.1.59.Final-linux-x86_64.jar:/Users/rahulkallur/.m2/repository/io/netty/netty-transport-native-unix-common/4.1.59.Final/netty-transport-native-unix-common-4.1.59.Final.jar:/Users/rahulkallur/.m2/repository/com/typesafe/netty/netty-reactive-streams-http/2.0.4/netty-reactive-streams-http-2.0.4.jar:/Users/rahulkallur/.m2/repository/com/typesafe/netty/netty-reactive-streams/2.0.4/netty-reactive-streams-2.0.4.jar:/Users/rahulkallur/.m2/repository/io/github/cdimascio/dotenv-java/3.0.0/dotenv-java-3.0.0.jar:/Users/rahulkallur/.m2/repository/org/apache/kafka/kafka-clients/3.4.0/kafka-clients-3.4.0.jar:/Users/rahulkallur/.m2/repository/com/github/luben/zstd-jni/1.5.2-1/zstd-jni-1.5.2-1.jar:/Users/rahulkallur/.m2/repository/org/lz4/lz4-java/1.8.0/lz4-java-1.8.0.jar:/Users/rahulkallur/.m2/repository/org/xerial/snappy/snappy-java/1.1.8.4/snappy-java-1.1.8.4.jar:/Users/rahulkallur/.m2/repository/org/slf4j/slf4j-api/2.0.9/slf4j-api-2.0.9.jar:/Users/rahulkallur/.m2/repository/ch/qos/logback/logback-classic/1.4.14/logback-classic-1.4.14.jar:/Users/rahulkallur/.m2/repository/ch/qos/logback/logback-core/1.4.14/logback-core-1.4.14.jar:"/>
    <property name="sun.cpu.endian" value="little"/>
    <property name="user.home" value="/Users/rahulkallur"/>
    <property name="user.language" value="en"/>
    <property name="java.specification.vendor" value="Oracle Corporation"/>
    <property name="java.version.date" value="2023-09-19"/>
    <property name="java.home" value="/opt/homebrew/Cellar/openjdk/21/libexec/openjdk.jdk/Contents/Home"/>
    <property name="file.separator" value="/"/>
    <property name="basedir" value="/Users/rahulkallur/Pictures/kube/IOT_HUB/Condense/store-connectors/aws-kinesis-source-kafka-connector"/>
    <property name="java.vm.compressedOopsMode" value="Zero based"/>
    <property name="line.separator" value="&#10;"/>
    <property name="java.vm.specification.vendor" value="Oracle Corporation"/>
    <property name="java.specification.name" value="Java Platform API Specification"/>
    <property name="apple.awt.application.name" value="ForkedBooter"/>
    <property name="surefire.real.class.path" value="/Users/rahulkallur/Pictures/kube/IOT_HUB/Condense/store-connectors/aws-kinesis-source-kafka-connector/target/surefire/surefirebooter-20231208110821143_3.jar"/>
    <property name="sun.management.compiler" value="HotSpot 64-Bit Tiered Compilers"/>
    <property name="ftp.nonProxyHosts" value="local|*.local|169.254/16|*.169.254/16"/>
    <property name="java.runtime.version" value="21"/>
    <property name="user.name" value="rahulkallur"/>
    <property name="stdout.encoding" value="UTF-8"/>
    <property name="path.separator" value=":"/>
    <property name="os.version" value="12.1"/>
    <property name="java.runtime.name" value="OpenJDK Runtime Environment"/>
    <property name="file.encoding" value="UTF-8"/>
    <property name="java.vm.name" value="OpenJDK 64-Bit Server VM"/>
    <property name="java.vendor.version" value="Homebrew"/>
    <property name="localRepository" value="/Users/rahulkallur/.m2/repository"/>
    <property name="java.vendor.url.bug" value="https://github.com/Homebrew/homebrew-core/issues"/>
    <property name="java.io.tmpdir" value="/var/folders/tr/08sb75tj5sb_k3zl9jlvx93c0000gp/T/"/>
    <property name="java.version" value="21"/>
    <property name="user.dir" value="/Users/rahulkallur/Pictures/kube/IOT_HUB/Condense/store-connectors/aws-kinesis-source-kafka-connector"/>
    <property name="os.arch" value="aarch64"/>
    <property name="java.vm.specification.name" value="Java Virtual Machine Specification"/>
    <property name="native.encoding" value="UTF-8"/>
    <property name="java.library.path" value="/Users/rahulkallur/Library/Java/Extensions:/Library/Java/Extensions:/Network/Library/Java/Extensions:/System/Library/Java/Extensions:/usr/lib/java:."/>
    <property name="java.vm.info" value="mixed mode, sharing"/>
    <property name="stderr.encoding" value="UTF-8"/>
    <property name="java.vendor" value="Homebrew"/>
    <property name="java.vm.version" value="21"/>
    <property name="sun.io.unicode.encoding" value="UnicodeBig"/>
    <property name="socksNonProxyHosts" value="local|*.local|169.254/16|*.169.254/16"/>
    <property name="java.class.version" value="65.0"/>
  </properties>
  <testcase name="testApp" classname="com.example.AppTest" time="0.002"/>
</testsuite>