/Users/rahulkallur/Pictures/kube/IOT_HUB/Condense/store-connectors/aws-kinesis-source-kafka-connector/src/main/java/com/example/Main.java
/Users/rahulkallur/Pictures/kube/IOT_HUB/Condense/store-connectors/aws-kinesis-source-kafka-connector/src/main/java/com/example/KinesisConsumer.java
/Users/rahulkallur/Pictures/kube/IOT_HUB/Condense/store-connectors/aws-kinesis-source-kafka-connector/src/main/java/com/example/KafkaPublish.java
