/Users/rahulkallur/Pictures/kube/IOT_HUB/Condense/store-connectors/kafka-mysql-sink/src/main/java/com/example/DataSaver.java
/Users/rahulkallur/Pictures/kube/IOT_HUB/Condense/store-connectors/kafka-mysql-sink/src/main/java/com/example/DatabaseConnector.java
/Users/rahulkallur/Pictures/kube/IOT_HUB/Condense/store-connectors/kafka-mysql-sink/src/main/java/com/example/Main.java
/Users/rahulkallur/Pictures/kube/IOT_HUB/Condense/store-connectors/kafka-mysql-sink/src/main/java/com/example/KafkaReader.java
